…
    ## `summarise()` regrouping output by 'patient', 'condition' (override with `.groups` argument)

    ## `summarise()` regrouping output by 'condition' (override with `.groups` argument)

``` r
abundances
```

    ## # A tibble: 27 x 5
    ## # Groups:   condition [3]
    ##    condition Mah.cluster group_size     sem cell_prop
    ##    <fct>     <chr>            <dbl>   <dbl>     <dbl>
    ##  1 Dx        CMP                 29 0.0137    0.0566 
    ##  2 Dx        DC                  29 0.0114    0.0346 
    ##  3 Dx        GMP                 29 0.0316    0.180  
    ##  4 Dx        HSC                 29 0.00607   0.00988
    ##  5 Dx        Macrophage          29 0.0524    0.345  
    ##  6 Dx        MEP                 29 0.0340    0.172  
    ##  7 Dx        Monocyte            29 0.00985   0.0312 
    ##  8 Dx        MPP                 29 0.0374    0.170  
    ##  9 Dx        Thrombocyte         29 0.00101   0.00275
    ## 10 Healthy   CMP                  4 0.00947   0.0307 
    ## # … with 17 more rows
…
