…
  write_rds(x = healthy_clusters, file = flowsom_file_name)
}

healthy_clusters %>% 
  count(.flowsom_cluster, sort = TRUE)
```

```
## # A tibble: 25 × 2
##    .flowsom_cluster     n
##    <chr>            <int>
##  1 8                35080
##  2 15               34665
##  3 6                32989
##  4 10               29269
##  5 14               29113
##  6 19               27773
##  7 3                27547
##  8 7                27360
##  9 13               25278
## 10 9                24739
## # … with 15 more rows
```
…
healthy_clusters_2 %>% 
  count(.phenograph_cluster, sort = TRUE)
```

```
## # A tibble: 28 × 2
##    .phenograph_cluster     n
##    <chr>               <int>
##  1 1                   59394
##  2 2                   58016
##  3 3                   41196
##  4 4                   38485
##  5 5                   34873
##  6 6                   33868
##  7 7                   32713
##  8 8                   25265
##  9 9                   24796
## 10 10                  21267
## # … with 18 more rows
```
…
healthy_metacluster_tibble_2
```

```
## # A tibble: 28 × 2
##    .phenograph_cluster .mahalanobis_metacluster
##    <chr>               <chr>                   
##  1 1                   monocytes               
##  2 10                  megakaryocytes          
##  3 11                  megakaryocytes          
##  4 12                  megakaryocytes          
##  5 13                  macrophages             
##  6 14                  monocytes               
##  7 15                  megakaryocytes          
##  8 16                  monocytes               
##  9 17                  GMPs                    
## 10 18                  DCs                     
## # … with 18 more rows
```
…
