…
``` r
emd_matrix <- 
  aml_emds %>% 
  pivot_wider(
    id_cols = c(patient, condition), 
    names_from = c(marker, stimulation), 
    values_from = emd
  ) %>% 
  select(-contains("Basal")) %>% 
  drop_na()

emd_matrix
```

    ## # A tibble: 27 x 32
    ##    patient condition pakt_GMCSF pakt_HS5 pakt_IL3 pakt_IL6 pakt_PVO4 pcreb_GMCSF
    ##    <chr>   <fct>          <dbl>    <dbl>    <dbl>    <dbl>     <dbl>       <dbl>
    ##  1 bm5721  Healthy        5.88     2.82     7.84     5.54       2.19       10.7 
    ##  2 bm5871  Healthy        2.64     0.419    4.51     2.30      10.1        24.0 
    ##  3 bm6152  Healthy        7.80     3.08     0.252   10.4        9.48        4.09
    ##  4 parbiu  Dx             4.57     2.71     6.97     1.35      13.4         9.43
    ##  5 parbiu  Rx             0.316    4.87     1.25     0.129     31.8         8.13
    ##  6 parwxu  Dx             0.601    1.67     2.23     0.792      3.46        3.93
    ##  7 parwxu  Rx             2.92     4.53     4.11     3.13      36.0         1.14
    ##  8 parzuu  Dx             0.632    2.31     2.07     0.471      9.84        6.45
    ##  9 parzuu  Rx             0.767    1.43     0.600    0.891      2.32        4.08
    ## 10 pasbee  Dx             1.63     1.12     1.34     0.753      1.26        3.06
    ## # … with 17 more rows, and 24 more variables: pcreb_HS5 <dbl>, pcreb_IL3 <dbl>,
    ## #   pcreb_IL6 <dbl>, pcreb_PVO4 <dbl>, perk_GMCSF <dbl>, perk_HS5 <dbl>,
    ## #   perk_IL3 <dbl>, perk_IL6 <dbl>, perk_PVO4 <dbl>, ps6_GMCSF <dbl>,
    ## #   ps6_HS5 <dbl>, ps6_IL3 <dbl>, ps6_IL6 <dbl>, ps6_PVO4 <dbl>,
    ## #   pstat3_GMCSF <dbl>, pstat3_HS5 <dbl>, pstat3_IL3 <dbl>, pstat3_IL6 <dbl>,
    ## #   pstat3_PVO4 <dbl>, pstat5_GMCSF <dbl>, pstat5_HS5 <dbl>, pstat5_IL3 <dbl>,
    ## #   pstat5_IL6 <dbl>, pstat5_PVO4 <dbl>
…
