…
```
## Error in tof_read_data(., sep = "_"): object 'tof_tibble' not found
```



```r
aml_data
```

```
## # A tibble: 22,527,299 × 52
##    file_name       CD45  CD61  CD99 empty_I127 CD45RA  CD93 CD3_CD19  CCR2 CD117
##    <chr>          <dbl> <dbl> <dbl>      <dbl>  <dbl> <dbl>    <dbl> <dbl> <dbl>
##  1 Plate1_BM5721…  4.84 0.199 0.390      0.199  3.75  0.569    0.390 0.199 0.199
##  2 Plate1_BM5721…  5.82 0.199 3.81       0.199  3.18  0.390    0.199 0.199 0.199
##  3 Plate1_BM5721…  5.16 3.64  3.69       0.199  1.94  2.89     0.569 4.20  0.199
##  4 Plate1_BM5721…  4.07 2.46  2.31       0.199  1.53  0.390    0.199 3.43  0.199
##  5 Plate1_BM5721…  4.61 0.199 3.42       0.199  4.45  0.199    0.199 0.199 0.199
##  6 Plate1_BM5721…  4.70 0.199 3.36       0.199  3.79  0.199    1.14  0.569 0.199
##  7 Plate1_BM5721…  5.75 1.44  3.00       1.44   2.19  2.56     0.390 3.85  0.199
##  8 Plate1_BM5721…  5.95 0.199 0.881      0.199  3.48  0.390    0.199 0.199 0.199
##  9 Plate1_BM5721…  5.12 0.199 1.14       0.199  2.94  0.199    1.61  0.199 0.199
## 10 Plate1_BM5721…  5.13 0.199 2.87       0.199  0.733 0.733    0.569 4.11  0.199
## # … with 22,527,289 more rows, and 42 more variables: CD123 <dbl>, CD64 <dbl>,
## #   CD90 <dbl>, CD38 <dbl>, CD34 <dbl>, CEBPa <dbl>, pSTAT5 <dbl>, CD11c <dbl>,
## #   CD13 <dbl>, pAkt <dbl>, TIM-3 <dbl>, CD56 <dbl>, CD10 <dbl>, PU.1 <dbl>,
## #   CD33 <dbl>, PD-L1 <dbl>, CD14 <dbl>, caspase-3 <dbl>, GATA-1 <dbl>,
## #   pSTAT3 <dbl>, CD41 <dbl>, CD16 <dbl>, CD68 <dbl>, MPO <dbl>, pErk <dbl>,
## #   CD47 <dbl>, CD135 <dbl>, CD109 <dbl>, pS6 <dbl>, CD49f <dbl>, HLA-DR <dbl>,
## #   CD71 <dbl>, pCreb <dbl>, empty_Ir191 <dbl>, empty_Ir193 <dbl>, …
```
…
