…
### By patient (comparing patients with both Dx and Rx)

#### Cell counts

``` r
aml_data %>% 
  filter(patient %in% PAIRED_PATIENTS) %>% 
  count(patient, condition)
```

    ## # A tibble: 22 x 3
    ##    patient condition      n
    ##    <chr>   <chr>      <int>
    ##  1 parbiu  dx        109172
    ##  2 parbiu  rx        130539
    ##  3 parwxu  dx         33747
    ##  4 parwxu  rx         39753
    ##  5 parzuu  dx         29213
    ##  6 parzuu  rx          4239
    ##  7 pasgwh  dx         41728
    ##  8 pasgwh  rx         38308
    ##  9 pasrtp  dx         83931
    ## 10 pasrtp  rx        106716
    ## # … with 12 more rows
…
