…
    ## Joining, by = "patient"

    ## `summarise()` ungrouping output (override with `.groups` argument)

``` r
prediction_table
```

    ## # A tibble: 100 x 2
    ##    penalty percent_correct
    ##      <dbl>           <dbl>
    ##  1 0.00624              80
    ##  2 0.00654              80
    ##  3 0.00685              80
    ##  4 0.00718              80
    ##  5 0.00752              80
    ##  6 0.00788              80
    ##  7 0.00825              80
    ##  8 0.00864              80
    ##  9 0.00905              80
    ## 10 0.00949              80
    ## #  with 90 more rows
…
