…
``` r
mah_dev_cv <- 
  mah_dev_data %>% 
  vfold_cv(v = 5, repeats = 10, strata = outcome) 

cos_dev_cv <- 
  cos_dev_data %>% 
  vfold_cv(v = 5, repeats = 10, strata = outcome)

mah_dev_cv
```

    ## #  5-fold cross-validation repeated 10 times using stratification 
    ## # A tibble: 50 x 3
    ##    splits         id       id2  
    ##    <list>         <chr>    <chr>
    ##  1 <split [22/7]> Repeat01 Fold1
    ##  2 <split [22/7]> Repeat01 Fold2
    ##  3 <split [24/5]> Repeat01 Fold3
    ##  4 <split [24/5]> Repeat01 Fold4
    ##  5 <split [24/5]> Repeat01 Fold5
    ##  6 <split [22/7]> Repeat02 Fold1
    ##  7 <split [22/7]> Repeat02 Fold2
    ##  8 <split [24/5]> Repeat02 Fold3
    ##  9 <split [24/5]> Repeat02 Fold4
    ## 10 <split [24/5]> Repeat02 Fold5
    ## # … with 40 more rows
…
